# LambdaRogue Item definition

#######################################################################################

NewItem:
2 Credits

ItemType
= Gold

Description:
Credits are the currency of NeoTerr

Price:
2

############################################################################################

NewItem:
4 Credits

ItemType
= Gold

Description:
Credits are the currency of NeoTerr

Price:
4

############################################################################################

NewItem:
8 Credits

ItemType
= Gold

Description:
Credits are the currency of NeoTerr

Price:
8

#######################################################################################

NewItem:
Dungeon Key

ItemType
= Key

Description:
Dungeon keys can unlock doors

Price:
60

#######################################################################################

NewItem:
Eris' Key

ItemType
= Key

Unique
= True

Description:
Nobody knows which door can be unlocked with this key

Price:
1

DungeonLvl:
99


#######################################################################################

NewItem:
Picklock

ItemType
= Key

Description:
Picklocks open locked doors without the need for a key

Price:
250

Profession:
3


#######################################################################################

NewItem:
Cola

Description:
Cola restores psychic points

ItemType
= Potion

Drink
= True

EffectType
= IncPP

EffectRange:
40

EffectText:
You feel better after drinking the cola

Price:
35

DungeonLvl:
1


#######################################################################################

NewItem:
Dust

Description:
Dust concentrates psychic power to a physical attack

ItemType
= Potion

Drink
= True

EffectType
= Force

EffectRange:
10

EffectText:
You feel a power surge

Price:
35

DungeonLvl:
2


#######################################################################################

NewItem:
Fish

Description:
These are pikes, already prepared to be consumed

ItemType
= Food

Eat
= True

EffectType
= DecHunger

EffectRange:
700

EffectText:
The fish tastes rather good

Price:
80

DungeonLvl:
1


#######################################################################################



NewItem:
Bread

Description:
Bright bread made of wheat

ItemType
= Food

Eat
= True

EffectType
= DecHunger

EffectRange:
250

EffectText:
Nearly tasteless, but you feel less hungry now

Price:
40

DungeonLvl:
1


#######################################################################################


NewItem:
Meat

Description:
Some delicious meat

ItemType
= Food

Eat
= True

EffectType
= DecHunger

EffectRange:
800

EffectText:
The meat tastes really good

Price:
95

DungeonLvl:
1


#######################################################################################


NewItem:
Bottle of Water

Description:
Water heals some damage

ItemType
= Potion

Drink
= True

EffectType
= IncHP

EffectRange:
15

EffectText:
The water refreshes you

Price:
10

DungeonLvl:
1


#######################################################################################


NewItem:
Candle

Description:
Candles enlarge your field of view

ItemType
= Torch

Extra
= True

Light:
2

Price:
40

DungeonLvl:
1

CharLvl:
1


#######################################################################################


NewItem:
Lantern

Description:
Lanterns enlight really dark places

ItemType
= Torch

ShopOnly
= True

Extra
= True

Light:
4

EffectType
= RemoveDarkness

Price:
150

DungeonLvl:
1

CharLvl:
1


#######################################################################################


NewItem:
Spade

Description:
Used to dig through walls

ItemType
= Spade

Hands
= True

ShopOnly
= True

Price:
45

SP:
2

DungeonLvl:
1

CharLvl:
1


#######################################################################################

NewItem:
Amphetamine

Description:
Amphetamine reduces negative effects of confusion

ItemType
= Potion

Drink
= True

EffectType
= DecConfusion

EffectRange:
8

EffectText:
You feel less confused now

Price:
40

DungeonLvl:
8


#######################################################################################

NewItem:
Clear Potion

Description:
Clear potions make you invisible for a short time

ItemType
= Potion

Rare
= True

Drink
= True

EffectType
= BecomeInvisible

EffectRange:
10

EffectText:
You feel stealthy

Price:
90

DungeonLvl:
7


#######################################################################################


NewItem:
Glowing Sunrise

Description:
This cocktail creates a fire aura around you

ItemType
= Potion

Rare
= True

Drink
= True

EffectType
= FireAura

EffectRange:
16

EffectText:
You feel hot

Price:
170

DungeonLvl:
6


#######################################################################################


NewItem:
Frozen Depths

Description:
This drink creates an aura of ice around you

ItemType
= Potion

Drink
= True

EffectType
= IceAura

EffectRange:
12

EffectText:
It's getting very cold around you

Price:
100

DungeonLvl:
21


#######################################################################################


NewItem:
C#

Description:
The liquid in this phiol reduces effects of blindness

ItemType
= Potion

Drink
= True

EffectType
= DecBlindness

EffectRange:
8

EffectText:
You can see better

Price:
40

DungeonLvl:
3



#######################################################################################


NewItem:
Phiol of Agility

Description:
This drink shortens phases of paralization

ItemType
= Potion

Drink
= True

EffectType
= DecPara

EffectRange:
8

EffectText:
You can move again

Price:
40

DungeonLvl:
16



#######################################################################################

NewItem:
Coffee

Description:
Coffee restores psychic points

ItemType
= Potion

Drink
= True

EffectType
= IncPP

EffectRange:
80

EffectText:
Your senses are sharpened

Price:
70

DungeonLvl:
5


#######################################################################################


NewItem:
Beer

ShopOnly
= True

Description:
The worlds oldest, most popular alcoholic beverage. Illegal

ItemType
= Potion

Drink
= True

EffectType
= IncConfusion

EffectRange:
15

EffectText:
Suddenly, you feel confused - but it's funny

Price:
40

DungeonLvl:
5


#######################################################################################


NewItem:
Dragon Poison

Description:
Poison does harm to your body

ItemType
= Potion

Drink
= True

EffectType
= IncPoison

EffectRange:
15

EffectText:
You feel very sick after drinking the poison

Price:
40

DungeonLvl:
99


#######################################################################################


NewItem:
Leviathan's Blood

Description:
After drinking this, you'll be transported to another place

ItemType
= Potion

Unique
= True

Drink
= True

EffectType
= Teleport

EffectText:
You feel lighter

Price:
350

DungeonLvl:
99


#######################################################################################


NewItem:
Junoblood

Description:
This is the blood of Junos; probably unhealthy

ItemType
= Potion

Rare
= True

Drink
= True

EffectType
= DecHP

EffectRange:
40

EffectText:
You feel sick

Price:
1

DungeonLvl:
13


#######################################################################################

NewItem:
Stone Skin

Description:
This potion creates a magic barrier around you

ItemType
= Potion

Rare
= True

Drink
= True

EffectType
= MagicWall

EffectText:
You feel safer

EffectRange:
20

Price:
190

DungeonLvl:
11


#######################################################################################


NewItem:
Waterfall

Description:
This potion creates a water aura around you

ItemType
= Potion

Rare
= True

Drink
= True

EffectType
= WaterAura

EffectText:
You're surrounded by floods of water

EffectRange:
8

Price:
50

DungeonLvl:
1

#######################################################################################


NewItem:
Spirit

Description:
This potion purifies the air around you

ItemType
= Potion

Rare
= True

Drink
= True

EffectType
= HealAura

EffectText:
The air smells fresh and purified

EffectRange:
6

Price:
50

DungeonLvl:
4

#######################################################################################


NewItem:
Potion of Time

Description:
This potion makes the world go slower

ItemType
= Potion

Unique
= True

Drink
= True

EffectType
= FreezeTime

EffectText:
Time is frozen

EffectRange:
10

Price:
250

DungeonLvl:
1


#######################################################################################


NewItem:
Antidepressant

Description:
This potion clarifies your soul and removes curses

ItemType
= Potion

Rare
= True

Drink
= True

EffectType
= Uncurse

EffectText:
You feel a dark shadow disappear

Price:
70

DungeonLvl:
9


#######################################################################################


NewItem:
Heartbeat

Description:
Makes you feel the beat of your healthy heart

ItemType
= Potion

Unique
= True

Drink
= True

EffectType
= IncHP

EffectRange:
400

EffectText:
You feel very healthy now

Price:
500

DungeonLvl:
99


#######################################################################################


NewItem:
Meteor

Description:
Summons a star to fall on Earth

ItemType
= Potion

Unique
= True

Drink
= True

EffectType
= Meteor

EffectRange:
1

EffectText:
Everything shatters ...

Price:
500

DungeonLvl:
20


#######################################################################################

NewItem:
Water of Life

Description:
After drinking this green liquid, you'll feel very healthy

ItemType
= Potion

Rare
= True

Drink
= True

EffectType
= IncHP

EffectRange:
200

EffectText:
You have been healed

Price:
250

DungeonLvl:
13


#######################################################################################

NewItem:
Phiol of Eternity

Description:
The power of the gods enclosed in this liquid will bless you

ItemType
= Potion

Unique
= True

Drink
= True

EffectType
= Bless

EffectText:
You're blessed

Price:
200

DungeonLvl:
15


#######################################################################################

NewItem:
Drink of Profanation

Description:
Darkness is enclosed in this bottle. Drinking is not recommended

ItemType
= Potion

Rare
= True

Drink
= True

EffectType
= Curse

EffectText:
Suddenly you feel very sad and lonely

Price:
70

DungeonLvl:
10


#######################################################################################


NewItem:
Potion of Duplication

Description:
This potion allows you to duplicate an item

ItemType
= Potion

Unique
= True

Drink
= True

EffectType
= CloneItem

EffectText:
You clone the item

Price:
70

DungeonLvl:
2


#######################################################################################


NewItem:
Identificator

Description:
This potion helps you with identifying unknown items

ItemType
= Potion

ShopOnly
= True

Drink
= True

EffectType
= Identify

EffectText:
You concentrate on your inventory

Price:
25

DungeonLvl:
1


#####################################################################################


NewItem:
Tears of War

Description:
This phiol contains millions of tears, cried in the great war

ItemType
= Potion

Unique
= True

Drink
= False

EffectText:
-

Price:
40

DungeonLvl:
99


#####################################################################################


NewItem:
100 Credits

Description:
Credits are the currency of NeoTerr

ItemType
= Gold

Unique
= True

Price:
100

DungeonLvl:
2

CharLvl:
1

#######################################################################################

NewItem:
Aspirin

Description:
Aspirin is useful to cure small wounds

ItemType
= Food

ShopOnly
= True

Eat
= True

EffectType
= IncHP

EffectRange:
35

Amount:
25

EffectText:
Your health regenerates after taking the Aspirin

Price:
50

DungeonLvl:
1


#######################################################################################

NewItem:
Penicillin

Description:
Penicillin works better than Aspirin on greater damage

ItemType
= Food

ShopOnly
= True

Eat
= True

EffectType
= IncHP

EffectRange:
100

Amount:
15

EffectText:
Your health regenerates after taking the Penicillin

Price:
100

DungeonLvl:
3


#######################################################################################


NewItem:
Fire of Prometheus

Description:
The phiol contains the fire of Prometheus. It creates a fire aura

ItemType
= Potion

Unique
= True

Drink
= True

EffectType
= FireAura

Price:
250

EffectRange:
40

DungeonLvl:
6


#######################################################################################


NewItem:
Sanctum

Description:
It is holy

ItemType
= Potion

Unique
= True

Drink
= True

EffectType
= HealAura

Price:
250

EffectRange:
40

DungeonLvl:
2

#####################################################################################

NewItem:
230 Credits

Description:
Credits are the currency of NeoTerr

ItemType
= Gold

Rare
= True

Price:
230

DungeonLvl:
6

######################################################################################


NewItem:
Pandora's Ale

Description:
Nobody knows what will happen when drinking this

ItemType
= Potion

Rare
= True

Price:
50

Drink
= True

EffectType
= Random

EffectRange:
12

DungeonLvl:
5


#######################################################################################


NewItem:
Cake

Description:
A cake, good with tea or coffee

ItemType
= Food

Eat
= True

EffectType
= DecHunger

EffectRange:
100

EffectText:
It's sweet and tasty

Price:
25

DungeonLvl:
1

#######################################################################################

NewItem:
Small mushroom

Description:
A small mushroom

ItemType
= Food

Eat
= True

EffectType
= IncPoison

EffectRange:
10

EffectText:
It's tasty ... but suddenly you feel awful

Price:
1

DungeonLvl:
99

#######################################################################################

NewItem:
Big mushroom

Description:
A big mushroom

ItemType
= Food

Eat
= True

EffectType
= IncConfusion

EffectRange:
9

EffectText:
You feel confused

Price:
2

DungeonLvl:
99

#######################################################################################

NewItem:
Tiva's Cheese Cake

Description:
This cake has been created by Tiva for her wedding

ItemType
= Food

Unique
= True

Eat
= True

EffectType
= IncHP

EffectRange:
50

EffectText:
It tastes wonderful - and your health seems to be better now

Price:
40

DungeonLvl:
1

#######################################################################################


NewItem:
Insurance Card

Description:
With this card in inventory, hospital treatments are for free

ItemType
= Rune

Unique
= True

DungeonLvl:
1

CharLvl:
1

Price:
30


#######################################################################################


NewItem:
Antidot

Description:
Use this medicine to cure toxications

ItemType
= Potion

Drink
= True

EffectType
= DecPoison

Price:
40

EffectRange:
8

EffectText:
You feel that the poison in your veins becomes less

DungeonLvl:
2


#######################################################################################


NewItem:
V.I.P. Card

Description:
Owners of a V.I.P. Card profit by many financial benefits

ItemType
= Rune

Unique
= True

DungeonLvl:
99

CharLvl:
1

Price:
60


#######################################################################################


NewItem:
Vitari

Description:
This will help you to be stronger, for a little while

ItemType
= Potion

Drink
= True

EffectType
= IncSTR

Price:
70

EffectRange:
20

EffectText:
It tastes horrible, but it seems to work

DungeonLvl:
5


#################


NewItem:
Hard Vitari

Description:
This will help you to be stronger

ItemType
= Potion

Unique
= True

Drink
= True

EffectType
= IncSTR

Price:
140

EffectRange:
40

EffectText:
It tastes horrible, but the effect is incredible

DungeonLvl:
99


######################################################################################
## PAPER, BOOKS ######################################################################
######################################################################################

NewItem:
Package of Paper

ItemType
= Page

Description:
Just some empty paper to write on

Amount:
20

Price:
20

######################################################################################

NewItem:
Scroll of Hope

ItemType
= Page

Unique
= True

Description:
Poetic words of wisdom are written on this scroll

Price
150

DungeonLvl:
99

Textfile:
scroll-of-hope


######################################################################################

NewItem:
Short History of NeoTerr

ItemType
= Page

ShopOnly
= True

Description:
Why does mankind live beneath the surface?

Price:
25

DungeonLvl:
1

Textfile:
short-history


######################################################################################

NewItem:
Ranger's Words

ItemType
= Page

Rare
= True

Description:
A quote from the past

Price:
50

DungeonLvl:
3

Textfile:
rangers-words

######################################################################################

NewItem:
The Shadow

ItemType
= Page

Description:
A poem

Price:
50

DungeonLvl:
5

Textfile:
the-shadow


######################################################################################


NewItem:
Dead Comrade

ItemType
= Page

ShopOnly
= True

Description:
The page of a diary

Price:
50

DungeonLvl:
7

Textfile:
dead-comrade


######################################################################################

NewItem:
Diary Page

ItemType
= Page

Unique
= True

Description:
Small letters are handwritten on this sheet of paper

Price
150

DungeonLvl:
3

Textfile:
diary-page



######################################################################################

NewItem:
Scroll of Ares

ItemType
= Page

ShopOnly
= True

Description:
A short history of Ares' interferring in Earth's life

Price:
80

DungeonLvl:
1

Textfile:
scroll-of-ares


######################################################################################

NewItem:
The Temple of Enoa

ItemType
= Page

ShopOnly
= True

Description:
Brief information on the temple of Enoa

Price:
50

DungeonLvl:
1

Textfile:
temple-of-enoa

######################################################################################

NewItem:
World Map

ItemType
= Page

ShopOnly
= True

Description:
Some information on the surroundings of the temple

Price:
50

DungeonLvl:
1

Textfile:
worldmap

######################################################################################

NewItem:
Scroll of Eris

ItemType
= Page

ShopOnly
= True

Description:
About the shameful actions of Eris, deity of dispute and chaos

Price:
80

DungeonLvl:
1

Textfile:
scroll-of-eris


######################################################################################

NewItem:
Scroll of Apoll

ItemType
= Page

ShopOnly
= True

Description:
The story Python and how it was killed by Apoll

Price:
80

DungeonLvl:
2

Textfile:
scroll-of-apoll

#######################################################################################

NewItem:
Book of Stars

ItemType
= Page

Unique
= True

Description:
This is the last book of Yron, with prophecies about his return

Price
400

DungeonLvl:
99

Textfile:
book-of-stars


######################################################################################


NewItem:
Letter from Daniel

ItemType
= Page

Unique
= True

Description:
This is a love letter from Daniel to Nina

Price
100

DungeonLvl:
99

Textfile:
letter-from-daniel

######################################################################################
## WEARABLES #########################################################################
######################################################################################

### body #############################################################################

NewItem:
Cape

Description:
A brown simple cape, often used by wanderers

ItemType
= Clothes

Body
= True

Price:
160

AP:
1

DungeonLvl:
1

CharLvl:
1


######################################################################################

NewItem:
Thick Cape

Description:
A green cape made of a thick material

ItemType
= Clothes

Body
= True

Price:
170

AP:
2

DungeonLvl:
2

CharLvl:
2


######################################################################################

NewItem:
Leather Suit

Description:
This is a simple suit of leather

ItemType
= Clothes

Body
= True

Price:
290

AP:
3

DungeonLvl:
1

CharLvl:
1


######################################################################################


NewItem:
Guard's Uniform

Description:
This is an uniform of NeoTerr's police guards

ItemType
= Clothes

Rare
= True

Body
= True

Price:
350

AP:
5

DungeonLvl:
2

CharLvl:
5


######################################################################################


NewItem:
Refined Suit

Description:
This is a fine suit of silk and leather

ItemType
= Clothes

Body
= True

Price:
400

AP:
6

DungeonLvl:
3

CharLvl:
6


######################################################################################


NewItem:
Doublet

Description:
This is a rather common jacket

ItemType
= Clothes

Body
= True

Price:
550

AP:
7

DungeonLvl:
3

CharLvl:
7

######################################################################################

NewItem:
Shadow and Light

Description:
A black tight jacket

ItemType
= Clothes

Body
= True

ShopOnly
= True

Price:
180

AP:
1

EffectType
= ResistBlindness

DungeonLvl:
1

CharLvl:
2

Profession:
2

######################################################################################

NewItem:
Brigandine

Description:
Brigandines are made of leather, with added steel plates

ItemType
= Armour

Body
= True

Price:
700

AP:
8

DungeonLvl:
5

CharLvl:
9

######################################################################################

NewItem:
Hauberk

Description:
This is a shirt of chain mail armour

ItemType
= Armour

Body
= True

Price:
850

AP:
9

DungeonLvl:
7

CharLvl:
11

######################################################################################

NewItem:
Pixane

Description:
A mail collar that covers shoulders, breast and upper back

ItemType
= Armour

Body
= True

Price:
900

AP:
11

DungeonLvl:
9

CharLvl:
13

######################################################################################

NewItem:
Lamellar Cuirass

Description:
This cuirass is made of many small plates

ItemType
= Armour

Rare
= True

Body
= True

Price:
1010

AP:
14

DungeonLvl:
11

CharLvl:
14

######################################################################################

NewItem:
Bronze Cuirass

Description:
This is a rather leightweight metal cuirass

ItemType
= Armour

Body
= True

Price:
1200

AP:
16

DungeonLvl:
14

CharLvl:
17

######################################################################################

NewItem:
Iron Cuirass

Description:
This is a cuirass made of heavy iron plates

ItemType
= Armour

Body
= True

Price:
1500

AP:
18

DungeonLvl:
16

CharLvl:
19

Profession:
5

######################################################################################

NewItem:
Sanguine Cuirass of Ares

Description:
This is a cuirass made of heavy iron plates

ItemType
= Armour

Unique
= True

Body
= True

Price:
950

AP:
13

DungeonLvl:
9

CharLvl:
12

Profession:
5

######################################################################################

NewItem:
Rain Cape

Description:
The material of this cape is waterproof

ItemType
= Clothes

Unique
= True

Body
= True

EffectType
= ResistWater

Price:
200

AP:
2

DungeonLvl:
4

CharLvl:
2

######################################################################################

NewItem:
Cloak of Caution

Description:
This cloak helps to avoid traps in the dungeon

ItemType
= Clothes

Rare
= True

Body
= True

EffectType
= AvoidTrap

Price:
190

AP:
1

DungeonLvl:
3

CharLvl:
3


### head #############################################################################

NewItem:
Leather Cap

Description:
This is a simple cap made of leather

ItemType
= Helmet

Head
= True

Price:
140

AP:
1

DungeonLvl:
1

CharLvl:
1

######################################################################################

NewItem:
Barbute

Description:
A close helmet with a Y-shaped slit for vision and breathing

ItemType
= Helmet

Rare
= True

Head
= True

Price:
200

AP:
2

DungeonLvl:
1

CharLvl:
1

######################################################################################

NewItem:
Armet

Description:
This is a simple, but effective protection for your head

ItemType
= Helmet

Head
= True

Price:
260

AP:
3

DungeonLvl:
3

CharLvl:
4

######################################################################################

NewItem:
Burgonet

Description:
Another type of helmet

ItemType
= Helmet

Head
= True

Price:
330

AP:
4

DungeonLvl:
5

CharLvl:
6

######################################################################################

NewItem:
Cervelliere

Description:
This helmet protects your head from damage

ItemType
= Helmet

Head
= True

Price:
450

AP:
5

DungeonLvl:
7

CharLvl:
8

######################################################################################

NewItem:
Bascinet

Description:
Wear this helmet to protect yourself

ItemType
= Helmet

Head
= True

Price:
500

AP:
6

DungeonLvl:
10

CharLvl:
10

######################################################################################

NewItem:
Great Helm

Description:
This is an ancient helm, very impressive

ItemType
= Helmet

Rare
= True

Head
= True

Price:
550

AP:
7

DungeonLvl:
16

CharLvl:
14

Profession:
5

######################################################################################

NewItem:
Cap of Illumination

Description:
It's a simple cap, but it glows in the darkness

ItemType
= Helmet

Unique
= True

Head
= True

Price:
190

Light:
2

EffectType
= ResistCalm

DungeonLvl:
5

CharLvl:
4

######################################################################################

NewItem:
Cap of the Ranger

Description:
This cap was worn by a legendary ranger, in better times

ItemType
= Helmet

Unique
= True

Head
= True

Price:
250

AP:
4

DungeonLvl:
99

CharLvl:
3

Profession:
4


### finger ###########################################################################

NewItem:
Blue Ring

Description:
This is a simple blue ring, rather unspecial

ItemType
= Ring

Finger
= True

Price:
250

WP:
1

DungeonLvl:
1

CharLvl:
2

######################################################################################

NewItem:
Green Ring

Description:
This is a shiny green ring

ItemType
= Ring

ShopOnly
= True

Finger
= True

Price:
300

AP:
2

DungeonLvl:
1

CharLvl:
4

######################################################################################

NewItem:
Red Ring

Description:
This is a beautiful red ring

ItemType
= Ring

Rare
= True

Finger
= True

Price:
400

WP:
2

AP:
2

DungeonLvl:
1

CharLvl:
5

######################################################################################

NewItem:
Silver Ring

Description:
This is a very beautiful silver ring

ItemType
= Ring

Rare
= True

Finger
= True

Price:
500

EffectType
= ResistIce

DungeonLvl:
8

CharLvl:
1

######################################################################################

NewItem:
Golden Ring

Description:
This ring is made of pure shiny gold

ItemType
= Ring

Unique
= True

Finger
= True

Price:
450

EffectType
= ExtraGold

DungeonLvl:
99

CharLvl:
1

######################################################################################

NewItem:
Holy Ring

Description:
This ring protects its owner from being cursed

ItemType
= Ring

Unique
= True

Finger
= True

Price:
500

EffectType
= ResistCurse

DungeonLvl:
99

CharLvl:
1

######################################################################################

NewItem:
Ring of Caution

Description:
This ring helps you to recognize and to avoid dungeon traps

ItemType
= Ring

Rare
= True

Finger
= True

Price:
220

EffectType
= AvoidTrap

DungeonLvl:
7

CharLvl:
1

######################################################################################

NewItem:
Pandora's Ring

Description:
This ring is made of deep black glass

ItemType
= Ring

Unique
= True

Finger
= True

Price:
400

EffectType
= ResistFire

DungeonLvl:
99

CharLvl:
9


######################################################################################
## WEAPONS ###########################################################################
######################################################################################

# BEGIN Claymore

NewItem:
Claymore

ItemType
= Sword

Hands
= True

TwoHands
= True

DungeonLvl:
16

CharLvl:
18

Strength:
80

WP:
27

GP:
0

AP:
0

Light:
0

Price:
1260

Profession:
5

# BEGIN Longsword

NewItem:
Longsword

ItemType
= Sword

Hands
= True

TwoHands
= True

DungeonLvl:
11

CharLvl:
16

Strength:
80

WP:
24

GP:
0

AP:
0

Light:
0

Price:
1120

Profession:
5

# BEGIN Dussack

NewItem:
Dussack

ItemType
= Sword

Hands
= True

DungeonLvl:
5

CharLvl:
9

Strength:
70

WP:
15

GP:
0

AP:
0

Light:
0

Price:
700

# BEGIN Knife

NewItem:
Knife

ItemType
= Sword

Hands
= True

DungeonLvl:
1

CharLvl:
1

Strength:
60

WP:
3

GP:
0

AP:
0

Light:
0

Price:
140

# BEGIN Sword

NewItem:
Sword

ItemType
= Sword

Hands
= True

DungeonLvl:
1

CharLvl:
1

Strength:
60

WP:
9

GP:
0

AP:
0

Light:
0

Price:
400

# BEGIN Slayer

NewItem:
Slayer

ItemType
= Sword

Rare
= True

Hands
= True

DungeonLvl:
1

CharLvl:
2

Strength:
40

WP:
10

GP:
0

AP:
0

Light:
0

Price:
420


# BEGIN Protector

NewItem:
Protector

ItemType
= Sword

Hands
= True

TwoHands
= True

DungeonLvl:
1

CharLvl:
3

Strength:
70

WP:
10

GP:
0

AP:
1

Light:
0

Price:
450


# BEGIN Broadsword

NewItem:
Broadsword

ItemType
= Sword

Hands
= True

DungeonLvl:
9

CharLvl:
14

Strength:
70

WP:
21

GP:
0

AP:
0

Light:
0

Price:
980

Profession:
5

# BEGIN Gladius

NewItem:
Gladius

ItemType
= Sword

Hands
= True

DungeonLvl:
3

CharLvl:
5

Strength:
60

WP:
12

GP:
0

AP:
0

Light:
0

Price:
600

# BEGIN Dagger

NewItem:
Dagger

ItemType
= Sword

Hands
= True

DungeonLvl:
1

CharLvl:
1

Strength:
60

WP:
6

GP:
0

AP:
0

Light:
0

Price:
280

# BEGIN Fairydagger

NewItem:
Fairydagger

ItemType
= Sword

Hands
= True

DungeonLvl:
2

CharLvl:
1

Strength:
60

EffectType
= Water

EffectRange:
4

WP:
7

GP:
0

AP:
2

Light:
0

Price:
300

# BEGIN Blade

NewItem:
Blade

ItemType
= Sword

Hands
= True

TwoHands
= True

DungeonLvl:
9

CharLvl:
10

Strength:
70

WP:
18

GP:
0

AP:
0

Light:
0

Price:
840

Profession:
5

# BEGIN Axe

NewItem:
Axe

ItemType
= Axe

Hands
= True

DungeonLvl:
1

CharLvl:
1

Strength:
70

WP:
6

GP:
0

AP:
0

Light:
0

Price:
260


# BEGIN Domai

NewItem:
Domai

ItemType
= Axe

Hands
= True

DungeonLvl:
1

CharLvl:
2

Strength:
75

WP:
6

GP:
0

AP:
2

Light:
0

Price:
290

# BEGIN Broadaxe

NewItem:
Broadaxe

ItemType
= Axe

Hands
= True

DungeonLvl:
5

CharLvl:
7

Strength:
80

WP:
15

GP:
0

AP:
0

Light:
0

Price:
700

# BEGIN Waraxe

NewItem:
Waraxe

ItemType
= Axe

Hands
= True

TwoHands
= True

DungeonLvl:
16

CharLvl:
16

Strength:
90

WP:
27

GP:
0

AP:
0

Light:
0

Price:
1240

Profession:
5

# BEGIN Berdysch

NewItem:
Berdysch

ItemType
= Axe

Hands
= True

DungeonLvl:
4

CharLvl:
3

Strength:
70

WP:
12

GP:
0

AP:
0

Light:
0

Price:
540

# BEGIN Labrys

NewItem:
Labrys

ItemType
= Axe

Hands
= True

DungeonLvl:
8

CharLvl:
10

Strength:
80

WP:
18

GP:
0

AP:
0

Light:
0

Price:
820

# BEGIN Lochaber

NewItem:
Lochaber

ItemType
= Axe

Hands
= True

DungeonLvl:
13

CharLvl:
15

Strength:
90

WP:
24

GP:
0

AP:
0

Light:
0

Price:
1100

Profession:
5

# BEGIN Hatchet

NewItem:
Hatchet

ItemType
= Axe

Hands
= True

DungeonLvl:
1

CharLvl:
1

Strength:
70

WP:
3

GP:
0

AP:
0

Light:
0

Price:
120

# BEGIN Steelaxe

NewItem:
Steelaxe

ItemType
= Axe

Hands
= True

DungeonLvl:
10

CharLvl:
13

Strength:
80

WP:
21

GP:
0

AP:
0

Light:
0

Price:
990

Profession:
5

# BEGIN Doubleaxe

NewItem:
Doubleaxe

ItemType
= Axe

Hands
= True

DungeonLvl:
2

CharLvl:
3

Strength:
70

WP:
9

GP:
0

AP:
0

Light:
0

Price:
400

# BEGIN Sarissa

NewItem:
Sarissa

ItemType
= Lance

Hands
= True

TwoHands
= True

DungeonLvl:
19

CharLvl:
18

Strength:
100

WP:
27

GP:
0

AP:
5

Light:
0

Price:
1350

# BEGIN Yari

NewItem:
Yari

ItemType
= Lance

Hands
= True

TwoHands
= True

DungeonLvl:
11

CharLvl:
14

Strength:
90

WP:
21

GP:
0

AP:
4

Light:
0

Price:
1010

# BEGIN Doublepike

NewItem:
Doublepike

ItemType
= Lance

Hands
= True

TwoHands
= True

DungeonLvl:
8

CharLvl:
10

Strength:
90

WP:
18

GP:
0

AP:
4

Light:
0

Price:
860

# BEGIN Crosslance

NewItem:
Crosslance

ItemType
= Lance

Hands
= True

TwoHands
= True

DungeonLvl:
5

CharLvl:
5

Strength:
80

WP:
12

GP:
0

AP:
2

Light:
0

Price:
580

# BEGIN Winglance

NewItem:
Winglance

ItemType
= Lance

Hands
= True

TwoHands
= True

DungeonLvl:
1

CharLvl:
2

Strength:
80

WP:
6

GP:
0

AP:
1

Light:
0

Price:
300

# BEGIN Triwing

NewItem:
Triwing

ItemType
= Lance

Hands
= True

TwoHands
= True

DungeonLvl:
14

CharLvl:
16

Strength:
100

WP:
24

GP:
0

AP:
5

Light:
0

Price:
1200

# BEGIN Hasta

NewItem:
Hasta

ItemType
= Lance

Hands
= True

TwoHands
= True

DungeonLvl:
2

CharLvl:
3

Strength:
80

WP:
9

GP:
0

AP:
1

Light:
0

Price:
440

# BEGIN Berserk

NewItem:
Berserk

ItemType
= Lance

Hands
= True

TwoHands
= True

DungeonLvl:
4

CharLvl:
4

Strength:
90

EffectType
= RageBonus

WP:
10

GP:
0

AP:
1

Light:
0

Price:
500

# BEGIN Lance

NewItem:
Lance

ItemType
= Lance

Hands
= True

TwoHands
= True

DungeonLvl:
1

CharLvl:
1

Strength:
80

WP:
3

GP:
0

AP:
1

Light:
0

Price:
160

# BEGIN Contus

NewItem:
Contus

ItemType
= Lance

Hands
= True

TwoHands
= True

DungeonLvl:
7

CharLvl:
8

Strength:
90

WP:
15

GP:
0

AP:
2

Light:
0

Price:
720

# BEGIN Shortbow

NewItem:
Shortbow

ItemType
= Gun

Hands
= True

TwoHands
= True

DungeonLvl:
1

CharLvl:
1

Strength:
50

WP:
0

GP:
3

NeedsAmmu:
1

AP:
0

Light:
0

Price:
170

# BEGIN Bow

NewItem:
Bow

ItemType
= Gun

Hands
= True

TwoHands
= True

DungeonLvl:
1

CharLvl:
1

Strength:
50

WP:
0

GP:
6

NeedsAmmu:
1

AP:
0

Light:
0

Price:
310

# BEGIN Rangerbow

NewItem:
Rangerbow

ItemType
= Gun

Hands
= True

TwoHands
= True

DungeonLvl:
5

CharLvl:
6

Strength:
60

WP:
0

GP:
15

NeedsAmmu:
2

AP:
0

Light:
0

Price:
730

Profession:
4

# BEGIN Hitotsu's Bow

NewItem:
Hitotsu's Bow

ItemType
= Gun

Unique
= True

Hands
= True

TwoHands
= True

DungeonLvl:
99

CharLvl:
3

Strength:
70

WP:
0

GP:
13

NeedsAmmu:
2

AP:
0

Light:
0

Price:
650

Profession:
4

# BEGIN Yumi

NewItem:
Yumi

ItemType
= Gun

Hands
= True

TwoHands
= True

DungeonLvl:
8

CharLvl:
10

Strength:
60

WP:
0

GP:
18

NeedsAmmu:
2

AP:
0

Light:
0

Price:
870

Profession:
4

# BEGIN Crossbow

NewItem:
Crossbow

ItemType
= Gun

Hands
= True

DungeonLvl:
15

CharLvl:
17

Strength:
70

WP:
0

GP:
27

NeedsAmmu:
3

AP:
0

Light:
0

Price:
1290

Profession:
4

# BEGIN Warbow

NewItem:
Warbow

ItemType
= Gun

Hands
= True

TwoHands
= True

DungeonLvl:
11

CharLvl:
13

Strength:
60

WP:
0

GP:
21

NeedsAmmu:
2

AP:
0

Light:
0

Price:
1010

Profession:
4

# BEGIN Compbow

NewItem:
Compbow

ItemType
= Gun

Hands
= True

TwoHands
= True

DungeonLvl:
2

CharLvl:
2

Strength:
50

WP:
0

GP:
9

NeedsAmmu:
1

AP:
0

Light:
0

Price:
450

# BEGIN Balester

NewItem:
Balester

ItemType
= Gun

Hands
= True

DungeonLvl:
12

CharLvl:
16

Strength:
70

WP:
0

GP:
24

NeedsAmmu:
3

AP:
0

Light:
0

Price:
1150

Profession:
4

# BEGIN Longbow

NewItem:
Longbow

ItemType
= Gun

Hands
= True

TwoHands
= True

DungeonLvl:
5

CharLvl:
1

Strength:
50

WP:
0

GP:
12

NeedsAmmu:
2

AP:
0

Light:
0

Price:
610

# BEGIN Waraxe of Power

NewItem:
Waraxe of Power

ItemType
= Axe

Hands
= True

TwoHands
= True

Rare
= True

EffectType
= Force

EffectRange:
14

DungeonLvl:
17

CharLvl:
16

Strength:
90

WP:
27

GP:
0

AP:
0

Light:
0

Price:
1750

Profession:
5


# BEGIN Mighty Berdysch

NewItem:
Mighty Berdysch

ItemType
= Axe

Hands
= True

Rare
= True

DungeonLvl:
6

CharLvl:
4

Strength:
70

WP:
13

GP:
0

AP:
0

Light:
0

Price:
650

# BEGIN Light Yumi

NewItem:
Light Yumi

ItemType
= Gun

Hands
= True

TwoHands
= True

Rare
= True

DungeonLvl:
9

CharLvl:
10

Strength:
50

WP:
0

GP:
18

NeedsAmmu:
2

AP:
0

Light:
0

Price:
950

Profession:
4

# BEGIN Shiny Warbow of Wealth

NewItem:
Shiny Warbow of Wealth

ItemType
= Gun

Hands
= True

TwoHands
= True

Unique
= True

EffectType
= ExtraGold

DungeonLvl:
18

CharLvl:
14

Strength:
60

WP:
0

GP:
21

NeedsAmmu:
2

AP:
0

Light:
1

Price:
1500

Profession:
4

# BEGIN Protecting Doublepike

NewItem:
Protecting Doublepike

ItemType
= Lance

Hands
= True

TwoHands
= True

Rare
= True

DungeonLvl:
9

CharLvl:
10

Strength:
90

WP:
18

GP:
0

AP:
2

Light:
0

Price:
1250

# BEGIN Mighty Claymore

NewItem:
Mighty Claymore

ItemType
= Sword

Hands
= True

TwoHands
= True

Rare
= True

DungeonLvl:
19

CharLvl:
19

Strength:
80

WP:
28

GP:
0

AP:
0

Light:
0

Price:
2520

Profession:
5

# BEGIN Shania

NewItem:
Shania

ItemType
= Sword

Hands
= True

Rare
= True

DungeonLvl:
4

CharLvl:
7

Strength:
65

WP:
13

GP:
0

AP:
1

Light:
0

Price:
650


#######################################################################################


NewItem:
Package of Arrows

Description:
These wooden arrows are needed for several kinds of bows

ItemType
= Ammu

IsAmmu:
1

Price:
20

Amount:
100

WP:
1

DungeonLvl:
1

CharLvl:
1


#######################################################################################


NewItem:
Package of Long Arrows

Description:
These arrows are needed for larger bows

ItemType
= Ammu

IsAmmu:
2

Price:
30

Amount:
100

WP:
2

DungeonLvl:
1

CharLvl:
1


#######################################################################################


NewItem:
Package of Small Bolts

Description:
These bolts are used in smaller crossbows

ItemType
= Ammu

IsAmmu:
3

Price:
30

Amount:
100

WP:
2

DungeonLvl:
5

CharLvl:
1


#######################################################################################


NewItem:
Package of Bolts

Description:
These are bolts for standard sized crossbows

ItemType
= Ammu

IsAmmu:
4

Price:
40

Amount:
100

WP:
4

DungeonLvl:
5

CharLvl:
1


#######################################################################################


NewItem:
Package of Strong Bolts

Description:
These are better bolts for standard sized crossbows

ItemType
= Ammu

Rare
= True

IsAmmu:
4

Price:
100

Amount:
60

WP:
8

DungeonLvl:
7

CharLvl:
1


#######################################################################################


NewItem:
Rock

Description:
Solid stone

ItemType
= Rock

IsAmmu:
5

Barricade
= True

WP:
20

Price:
10

DungeonLvl:
1

CharLvl:
1



######################################################################################
## SET ITEMS #########################################################################
######################################################################################

### 1: Runes of Beithe ###############################################################


NewItem:
Rune of Beithe

Description:
A Drekh'narian rune of Beithe

ItemType
= Rune

SetItem:
1

DungeonLvl:
1

CharLvl:
1


#######################################################################################


NewItem:
Rune of hUath

Description:
A Drekh'narian rune of hUath

ItemType
= Rune

SetItem:
1

DungeonLvl:
3

CharLvl:
1


#######################################################################################


NewItem:
Rune of Muin

Description:
A Drekh'narian rune of Muin

ItemType
= Rune

SetItem:
1

DungeonLvl:
12

CharLvl:
1

#######################################################################################

NewItem:
Rune of Ailm

Description:
A Drekh'narian rune of Ailm

ItemType
= Rune

SetItem:
1

DungeonLvl:
17

CharLvl:
1


### 2: Redemption ###############################################################

NewItem:
Cape of Magic

Description:
An old, shimmering cloak, suitable for enchanters

ItemType
= Clothes

Body
= True

Unique
= True

SetItem:
2

Price:
200

AP:
3

EffectType
= MaxMagic

DungeonLvl:
2

CharLvl:
2

Profession:
2

#######################################################################################

NewItem:
Barbute of Invisibility

Description:
This helmet hides his owner from being recognized by others

ItemType
= Helmet

Unique
= True

SetItem:
2

Price:
400

AP:
2

EffectType
= BecomeInvisible

DungeonLvl:
13

CharLvl:
4

Profession:
2

#######################################################################################

NewItem:
Ring of Wisdom

Description:
The wisdom of eternity seems to be enclosed in this old ring

ItemType
= Ring

Unique
= True

Finger
= True

SetItem:
2

Price:
150

EffectType
= ExtraEXP

DungeonLvl:
1

CharLvl:
1


#######################################################################################

NewItem:
Ring of Agility

Description:
This ring protects you from being paralized

ItemType
= Ring

Unique
= True

Finger
= True

SetItem:
2

Price:
300

EffectType
= ResistParalization

DungeonLvl:
5

CharLvl:
1


### 3: Books of Yron ##################################################################

NewItem:
Book of Joy

ItemType
= Page

Rare
= True

Description:
This is one of the books of Yron, describing his way of joy

SetItem:
3

Price
400

DungeonLvl:
9

Textfile:
book-of-joy

#######################################################################################

NewItem:
Book of Tears

ItemType
= Page

Unique
= True

Description:
This is one of the books of Yron, describing his way to cry

SetItem:
3

Price
400

DungeonLvl:
99

Textfile:
book-of-tears

#######################################################################################

NewItem:
Book of Hate

ItemType
= Page

Unique
= True

Description:
This is one of the books of Yron, describing his way to hate

SetItem:
3

Price
400

DungeonLvl:
99

Textfile:
book-of-hate

#######################################################################################

NewItem:
Book of Love

ItemType
= Page

Unique
= True

Sacrifice
= True

Description:
This is one of the books of Yron, describing his way to love

SetItem:
3

Price
400

DungeonLvl:
99

Textfile:
book-of-love

#######################################################################################

NewItem:
History of NeoTerr (Part I)

ItemType
= Page

Unique
= True

Description:
A very precious book, bound in leather and with gilt edging

SetItem:
4

Price
1500

DungeonLvl:
99

Textfile:
history-of-neoterr-1

######################################################################################


NewItem:
History of NeoTerr (Part II)

ItemType
= Page

Rare
= True

Description:
This scripture describes some of the events leading to NeoTerr

SetItem:
4

Price
100

DungeonLvl:
16

Textfile:
history-of-neoterr-2

######################################################################################

NewItem:
History of NeoTerr (Part III)

ItemType
= Page

Rare
= True

Description:
This scripture describes some of the events leading to NeoTerr

SetItem:
4

Price
100

DungeonLvl:
3

Textfile:
history-of-neoterr-3


### 5: Minor Gear of Thagor ##########################################################


NewItem:
Fire Blade of Thagor

Description:
This is the magical blade used by Thagor

ItemType
= Sword

Unique
= True

SetItem:
5

Hands
= True

TwoHands
= True

Price:
1050

WP:
18

Strength:
70

EffectType
= Fire

EffectRange:
20

DungeonLvl:
99

CharLvl:
10

Profession:
5

######################################################################################

NewItem:
Great Helm of Thagor

Description:
This is the helmet of the mystical hero Thagor

ItemType
= Helmet

Unique
= True

SetItem:
5

Head
= True

Price:
500

WP:
2

AP:
6

SP:
2

GP:
2

Light:
1

DungeonLvl:
19

CharLvl:
17

Profession:
5


### 6: Major Gear of Thagor ##########################################################


NewItem:
Precise Bow of Thagor

Description:
This bow has been used by Thagor centuries ago

ItemType
= Gun

Unique
= True

SetItem:
6

NeedsAmmu:
1

Hands
= True

TwoHands
= True

Shoot
= True

Price:
900

GP:
19

Strength:
30

DungeonLvl:
13

CharLvl:
14


######################################################################################

NewItem:
Precious Ring of Thagor

Description:
The beauty of this ring is breathtaking

ItemType
= Ring

Unique
= True

SetItem:
6

Finger
= True

Price:
300

EffectType
= ResistConfusion

DungeonLvl:
5

CharLvl:
1


## some other items ############################################################

NewItem:
Jade Ring

Description:
This ring is made of a precious mineral

ItemType
= Ring

Rare
= True

Finger
= True

Price:
350

EffectType
= ResistPoison

DungeonLvl:
3

CharLvl:
1

######################################################################################

NewItem:
Ring of Speed

Description:
You can move faster with this ring

ItemType
= Ring

Rare
= True

Finger
= True

Price:
250

EffectType
= IncMove

EffectRange:
2

DungeonLvl:
1

CharLvl:
1


### 7: Adrian Smith, Inc. ##########################################################


NewItem:
Smith's Crossbow

Description:
This bow is designed by Adrian Smith

ItemType
= Gun

ShopOnly
= True

SetItem:
7

NeedsAmmu:
6

Hands
= True

Shoot
= True

Price:
500

GP:
10

Strength:
25

DungeonLvl:
5

CharLvl:
2

################

NewItem:
Package of Smith's Bolts

Description:
These bolts are for bows designed by Adrian Smith

ItemType
= Ammu

ShopOnly
= True

SetItem:
7

IsAmmu:
6

Amount:
40

Price:
80

WP:
4

DungeonLvl:
5

CharLvl:
1

###############

NewItem:
Smith's Armour

Description:
This armour is designed by Adrian Smith

ItemType
= Armour

ShopOnly
= True

SetItem:
7

Body
= True

Price:
750

AP:
9

DungeonLvl:
5

CharLvl:
7

#############

NewItem:
Smith's Cap

Description:
This cap is designed by Adrian Smith

ItemType
= Helmet

ShopOnly
= True

SetItem:
7

Head
= True

Price:
450

GP:
3

DungeonLvl:
5

CharLvl:
1

###############

NewItem:
Smith's Blade

Description:
This sword is designed by Adrian Smith

ItemType
= Sword

ShopOnly
= True

SetItem:
7

Hands
= True

Price:
550

WP:
11

Strength:
25

DungeonLvl:
5

CharLvl:
3

############

# BEGIN Northdoom

NewItem:
Northdoom

ItemType
= Sword

Unique
= True

Hands
= True

DungeonLvl:
21

CharLvl:
20

Strength:
50

EffectType
= Ice

EffectRange:
10

WP:
30

GP:
0

AP:
0

Light:
0

Price:
3500

#######################################################################################

NewItem:
Tamiflu

Description:
Tamiflu is an effective, yet experimental medicine

ItemType
= Food

Rare
= True

Eat
= True

EffectType
= IncHP

EffectRange:
200

Amount:
15

EffectText:
Your health regenerates after taking the Tamiflu

Price:
150

DungeonLvl:
7

#######################################################################################

NewItem:
Rosegarden's seductive perfume

Description:
This is a rose-scented perfume, created by M. Grenouille

ItemType
= Potion

Unique
= True

Drink
= True

EffectType
= DecHP

EffectRange:
20

EffectText:
Terrible. Better not drink perfumes.

Price:
160

DungeonLvl:
99

# BEGIN Rusty Dagger

NewItem:
Rusty Dagger

ItemType
= Sword

Hands
= True

DungeonLvl:
1

CharLvl:
1

Strength:
50

WP:
4

GP:
0

AP:
0

Light:
0

Price:
150

######################################################################################

NewItem:
The Forgotten Realm

ItemType
= Page

ShopOnly
= True

Description:
A short summary of our knowledge about the Forgotten Realm

Price:
80

DungeonLvl:
1

Textfile:
forgotten-realm

######################################################################################

NewItem:
The Undying King

ItemType
= Page

ShopOnly
= True

Description:
The legend of the king of the Forgotten Realm

Price:
100

DungeonLvl:
1

Textfile:
undying-king


# BEGIN Fire Axe

NewItem:
Fire Axe

ItemType
= Axe

Hands
= True

DungeonLvl:
3

CharLvl:
4

Strength:
70

WP:
6

EffectType
= Fire

EffectRange:
3

GP:
0

AP:
0

Light:
0

Price:
300

# BEGIN Icelance

NewItem:
Icelance

ItemType
= Lance

Hands
= True

TwoHands
= True

DungeonLvl:
4

CharLvl:
4

Strength:
80

WP:
6

EffectType
= Ice

EffectRange:
3

GP:
0

AP:
0

Light:
0

Price:
300


#######################################################################################

####### Temporary Resistance Items ########

NewItem:
Vaccine

Description:
The liquid in this phiol makes you resistant against poison

ItemType
= Potion

ShopOnly
= True

Drink
= True

EffectType
= ResistPoison

EffectRange:
10

EffectText:
You feel immune against poison

Price:
100

DungeonLvl:
1


#######################################################################################


NewItem:
Cold Potion

Description:
This potion makes you resistant against fire

ItemType
= Potion

ShopOnly
= True

Drink
= True

EffectType
= ResistFire

EffectRange:
20

EffectText:
You feel immune against fire

Price:
200

DungeonLvl:
5


#######################################################################################


NewItem:
Warm Potion

Description:
This potion makes you resistant against ice

ItemType
= Potion

ShopOnly
= True

Drink
= True

EffectType
= ResistIce

EffectRange:
10

EffectText:
You feel immune against ice

Price:
100

DungeonLvl:
1


#######################################################################################


NewItem:
Open Eye Potion

Description:
This potion makes you resistant against blindness

ItemType
= Potion

ShopOnly
= True

Drink
= True

EffectType
= ResistBlindness

EffectRange:
5

EffectText:
You feel immune against blindness

Price:
100

DungeonLvl:
1


#######################################################################################


NewItem:
Dry Potion

Description:
This potion makes you resistant against water

ItemType
= Potion

Drink
= True

EffectType
= ResistWater

EffectRange:
5

EffectText:
You feel immune against water

Price:
50

DungeonLvl:
1


#######################################################################################


NewItem:
Sacred Food

Description:
Eating this protects you from curses

ItemType
= Food

ShopOnly
= True

Eat
= True

EffectType
= ResistCurse

EffectRange:
10

EffectText:
You feel immune against curses

Price:
500

DungeonLvl:
15


#######################################################################################


NewItem:
Phiol of Rage

Description:
Rate of divine rage is increased after drinking this potion

ItemType
= Potion

Drink
= True

EffectType
= RageBonus

EffectRange:
5

EffectText:
Divine rage comes upon your enemies

Price:
100

DungeonLvl:
5


#######################################################################################


NewItem:
Potion of Magic

Description:
This potion maximizes the efficiency of your magical chants

ItemType
= Potion

Drink
= True

EffectType
= MaxMagic

EffectRange:
5

EffectText:
Your magic is maximized

Price:
100

DungeonLvl:
10


#######################################################################################


NewItem:
Potion of Movement

Description:
This potion protects from paralization

ItemType
= Potion

ShopOnly
= True

Drink
= True

EffectType
= ResistParalization

EffectRange:
10

EffectText:
You feel that nothing can bind you

Price:
100

DungeonLvl:
10

#######################################################################################

NewItem:
Purple Ring

Description:
This is a nice purple ring

ItemType
= Ring

Finger
= True

Price:
250

GP:
1

DungeonLvl:
1

CharLvl:
2

#######################################################################################


NewItem:
Liquid Death

Description:
This potion kills all life in the current area

ItemType
= Potion

Unique
= True

Drink
= True

EffectType
= Wipe

EffectText:
You feel pain and suddenly you're all alone

Price:
100

DungeonLvl:
22


#######################################################################################

NewItem:
Ring of Vigor

Description:
This ring preserves your strength

ItemType
= Ring

Finger
= True

Price:
350

EffectType
= ResistDrainSTR

DungeonLvl:
1

CharLvl:
1

######################################################################################

NewItem:
First Verse

ItemType
= Page

Unique
= True

Description:
The first verse of a poem

Price:
50

DungeonLvl:
99

Textfile:
first-verse

######################################################################################

NewItem:
Second Verse

ItemType
= Page

Unique
= True

Description:
The second verse of a poem

Price:
50

DungeonLvl:
99

Textfile:
second-verse

######################################################################################

NewItem:
Third Verse

ItemType
= Page

Unique
= True

Description:
The third verse of a poem

Price:
50

DungeonLvl:
99

Textfile:
third-verse

######################################################################################

NewItem:
Fourth Verse

ItemType
= Page

Unique
= True

Description:
The fourth verse of a poem

Price:
50

DungeonLvl:
99

Textfile:
fourth-verse

######################################################################################

NewItem:
Beautiful Notebook

ItemType
= Page

Unique
= True

Description:
A notebook. Very beautiful, with some missing pages

Price:
70

DungeonLvl:
99

#######################################################################################

NewItem:
Bridal Flowers

Description:
A beautiful bouquet of flowers

ItemType
= Food

Unique
= True

Price:
20

DungeonLvl:
99

######################################################################################

NewItem:
Heart of Aphrodite

Description:
This is an anthracite ring with a ruby red gemstone

ItemType
= Ring

Unique
= True

EffectType
= RageBonus

Finger
= True

Price:
450

DungeonLvl:
99

CharLvl:
1

#######################################################################################


NewItem:
Wooden Shield

Description:
A simple shield, made of cheap wood

ItemType
= Shield

ShopOnly
= True

Extra
= True

AP:
1

Price:
150

DungeonLvl:
1

CharLvl:
1


#######################################################################################


NewItem:
Walking Shoes

Description:
Simple shoes without any special properties

ItemType
= Shoes

ShopOnly
= True

Feet
= True

Price:
50

DungeonLvl:
1

CharLvl:
1

#######################################################################################


NewItem:
Big Wooden Shield

Description:
A more protective variant off the wooden shield

ItemType
= Shield

Unique
= True

Extra
= True

AP:
2

Price:
200

DungeonLvl:
2

CharLvl:
2


#######################################################################################


NewItem:
Copper Shield

Description:
-

ItemType
= Shield

ShopOnly
= True

Extra
= True

AP:
2

Price:
300

DungeonLvl:
5

CharLvl:
1

#######################################################################################


NewItem:
Bronze Shield

Description:
-

ItemType
= Shield

ShopOnly
= True

Extra
= True

AP:
4

Price:
400

DungeonLvl:
10

CharLvl:
6

#######################################################################################


NewItem:
Iron Shield

Description:
-

ItemType
= Shield

ShopOnly
= True

Extra
= True

AP:
5

Price:
500

DungeonLvl:
12

CharLvl:
10

Profession:
5

#######################################################################################


NewItem:
Great Shield

Description:
-

ItemType
= Shield

ShopOnly
= True

Extra
= True

AP:
6

Price:
650

DungeonLvl:
15

CharLvl:
13

Profession:
5

#######################################################################################


NewItem:
Krice's Great Shield

Description:
A shield that protects its bearer by grief and despair

ItemType
= Shield

Unique
= True

Extra
= True

AP:
6

Price:
700

DungeonLvl:
18

CharLvl:
15

Profession:
5


#######################################################################################


NewItem:
Boots of Regeneration

Description:
-

ItemType
= Shoes

Unique
= True

Feet
= True

EffectType
= IncHP

Price:
500

DungeonLvl:
19

CharLvl:
10


#######################################################################################


NewItem:
Gracile Sandals

Description:
A beautiful pair of sandals, ornated with small diamonds

ItemType
= Shoes

Unique
= True

Feet
= True

AP:
1

Price:
400

DungeonLvl:
15

Sex:
2

CharLvl:
1


#######################################################################################


NewItem:
Patent Leather Shoes

Description:
An expensive pair of men's shoes

ItemType
= Shoes

Unique
= True

Feet
= True

AP:
1

Price:
400

DungeonLvl:
15

Sex:
1

CharLvl:
1


#####################################################################################


NewItem:
500 Credits

Description:
Credits are the currency of NeoTerr

ItemType
= Gold

Unique
= True

Price:
500

DungeonLvl:
25

CharLvl:
1


#######################################################################################


NewItem:
Good Shoes

Description:
-

ItemType
= Shoes

ShopOnly
= True

Feet
= True

AP:
1

Price:
170

DungeonLvl:
1

CharLvl:
1


#######################################################################################


NewItem:
Worker's Boots

Description:
Solid leather boots

ItemType
= Shoes

ShopOnly
= True

Feet
= True

AP:
2

Price:
250

DungeonLvl:
1

CharLvl:
3


#######################################################################################


NewItem:
Army Boots

Description:
Black boots, mainly used by the soldiers of NeoTerr

ItemType
= Shoes

ShopOnly
= True

Feet
= True

AP:
3

Price:
400

DungeonLvl:
5

CharLvl:
5


#######################################################################################


NewItem:
Heavy Army Boots

Description:
Heavy black boots, only used by the soldiers of NeoTerr

ItemType
= Shoes

ShopOnly
= True

Feet
= True

AP:
4

Price:
550

DungeonLvl:
10

CharLvl:
7

Profession:
5


#######################################################################################


NewItem:
Fur Boots

Description:
Boots covered by thick fur, keeping your legs warm

ItemType
= Shoes

Unique
= True

Feet
= True

EffectType
= ResistIce

AP:
2

Price:
300

DungeonLvl:
4

CharLvl:
5
